[
  {"model": "app.city", "pk": 1, "fields": {
    "name": "Kazan"}
  },
  {"model": "app.city", "pk": 2, "fields": {
    "name": "Moscow"}
  },
  {"model": "app.city", "pk": 3, "fields": {
    "name": "Saint-Petersburg"}
  },

  {"model": "app.user", "pk": 1, "fields": {
    "password": "pbkdf2_sha256$216000$xH5c76dWCZ8c$9ps4cg+c9pMbfMSsH+lovGZZPi7kEkJIzvAzx8gh7nY=",
    "is_active": true,
    "login": "admin",
    "name": "admin",
    "city": 1,
    "is_staff": true,
    "groups": [],
    "user_permissions": []
  }},
  {"model": "app.user", "pk": 2, "fields": {
    "password": "pbkdf2_sha256$216000$XujK9PwmCOtz$99XxNtAlsQIIZnXKX8Jz2lA1yHd+ECuBRmxflKnGiGE=",
    "is_active": true,
    "login": "user",
    "name": "user",
    "city": 2,
    "is_staff": false,
    "groups": [],
    "user_permissions": []
  }},
  
  {
    "model": "app.announcement", 
    "pk": 1, 
    "fields": {
        "name": "Продается телевизор", 
        "user": 1, 
        "city": 1, 
        "body": "Умный телевизор Samsung, почти новый", 
        "price": null
    }
    }, 
    {
        "model": "app.announcement",
        "pk": 2, 
        "fields": {
            "name": "СУПЕРКРУТОЙ ИГРОВОЙ КОМПЬЮТЕР",
            "user": 2,
            "city": 2,
            "body": "Игровой компьютер: 4 ядра 2 гига, наушники с подсветкой, умная блютуз колонка",
            "price": 250000
        }
    }, 
    {
        "model": "app.announcement",
        "pk": 3, 
        "fields": {
            "name": "Двухкомнатная квартира", 
            "user": 1, 
            "city": 1, 
            "body": "Квартира с евроремонтом в центре, около ветки метро, цена договорная", 
            "price": null
        }
    }, 
    {"model": "app.announcement", 
        "pk": 4, 
        "fields": {
            "name": "Трешка квартира", 
            "user": 2, 
            "city": 3, 
            "body": "Квартира с евроремонтом в спальном районе, умная техника", 
            "price": 10000000
        }
    }
]